60.81
66.34
71.87
96.74
110.56
124.38
138.21
138.21
140.97
129.91
127.15
121.62
118.86
116.09
113.33
113.33
116.09
116.09
121.62
127.15
135.44
138.21
124.38
96.74
60.81
66.34
71.87
96.74
110.56
124.38
138.21
138.21
140.97
129.91
127.15
121.62
118.86
116.09
113.33
113.33
116.09
116.09
121.62
127.15
135.44
138.21
124.38
96.74
71.54
78.05
84.55
113.82
130.08
146.33
162.59
162.59
165.85
152.84
149.59
143.08
139.83
136.58
133.33
133.33
136.58
136.58
143.08
149.59
159.34
162.59
146.33
113.82
71.54
78.05
84.55
113.82
130.08
146.33
162.59
162.59
165.85
152.84
149.59
143.08
139.83
136.58
133.33
133.33
136.58
136.58
143.08
149.59
159.34
162.59
146.33
113.82
60.81
66.34
71.87
96.74
110.56
124.38
138.21
138.21
140.97
129.91
127.15
121.62
118.86
116.09
113.33
113.33
116.09
116.09
121.62
127.15
135.44
138.21
124.38
96.74
60.81
66.34
71.87
96.74
110.56
124.38
138.21
138.21
140.97
129.91
127.15
121.62
118.86
116.09
113.33
113.33
116.09
116.09
121.62
127.15
135.44
138.21
124.38
96.74
60.81
66.34
71.87
96.74
110.56
124.38
138.21
138.21
140.97
129.91
127.15
121.62
118.86
116.09
113.33
113.33
116.09
116.09
121.62
127.15
135.44
138.21
124.38
96.74
60.81
66.34
71.87
96.74
110.56
124.38
138.21
138.21
140.97
129.91
127.15
121.62
118.86
116.09
113.33
113.33
116.09
116.09
121.62
127.15
135.44
138.21
124.38
96.74
60.81
66.34
71.87
96.74
110.56
124.38
138.21
138.21
140.97
129.91
127.15
121.62
118.86
116.09
113.33
113.33
116.09
116.09
121.62
127.15
135.44
138.21
124.38
96.74
71.54
78.05
84.55
113.82
130.08
146.33
162.59
162.59
165.85
152.84
149.59
143.08
139.83
136.58
133.33
133.33
136.58
136.58
143.08
149.59
159.34
162.59
146.33
113.82
71.54
78.05
84.55
113.82
130.08
146.33
162.59
162.59
165.85
152.84
149.59
143.08
139.83
136.58
133.33
133.33
136.58
136.58
143.08
149.59
159.34
162.59
146.33
113.82
60.81
66.34
71.87
96.74
110.56
124.38
138.21
138.21
140.97
129.91
127.15
121.62
118.86
116.09
113.33
113.33
116.09
116.09
121.62
127.15
135.44
138.21
124.38
96.74
60.81
66.34
71.87
96.74
110.56
124.38
138.21
138.21
140.97
129.91
127.15
121.62
118.86
116.09
113.33
113.33
116.09
116.09
121.62
127.15
135.44
138.21
124.38
96.74
60.81
66.34
71.87
96.74
110.56
124.38
138.21
138.21
140.97
129.91
127.15
121.62
118.86
116.09
113.33
113.33
116.09
116.09
121.62
127.15
135.44
138.21
124.38
96.74
60.81
66.34
71.87
96.74
110.56
124.38
138.21
138.21
140.97
129.91
127.15
121.62
118.86
116.09
113.33
113.33
116.09
116.09
121.62
127.15
135.44
138.21
124.38
96.74
60.81
66.34
71.87
96.74
110.56
124.38
138.21
138.21
140.97
129.91
127.15
121.62
118.86
116.09
113.33
113.33
116.09
116.09
121.62
127.15
135.44
138.21
124.38
96.74
71.54
78.05
84.55
113.82
130.08
146.33
162.59
162.59
165.85
152.84
149.59
143.08
139.83
136.58
133.33
133.33
136.58
136.58
143.08
149.59
159.34
162.59
146.33
113.82
71.54
78.05
84.55
113.82
130.08
146.33
162.59
162.59
165.85
152.84
149.59
143.08
139.83
136.58
133.33
133.33
136.58
136.58
143.08
149.59
159.34
162.59
146.33
113.82
60.81
66.34
71.87
96.74
110.56
124.38
138.21
138.21
140.97
129.91
127.15
121.62
118.86
116.09
113.33
113.33
116.09
116.09
121.62
127.15
135.44
138.21
124.38
96.74
60.81
66.34
71.87
96.74
110.56
124.38
138.21
138.21
140.97
129.91
127.15
121.62
118.86
116.09
113.33
113.33
116.09
116.09
121.62
127.15
135.44
138.21
124.38
96.74
60.81
66.34
71.87
96.74
110.56
124.38
138.21
138.21
140.97
129.91
127.15
121.62
118.86
116.09
113.33
113.33
116.09
116.09
121.62
127.15
135.44
138.21
124.38
96.74
60.81
66.34
71.87
96.74
110.56
124.38
138.21
138.21
140.97
129.91
127.15
121.62
118.86
116.09
113.33
113.33
116.09
116.09
121.62
127.15
135.44
138.21
124.38
96.74
60.81
66.34
71.87
96.74
110.56
124.38
138.21
138.21
140.97
129.91
127.15
121.62
118.86
116.09
113.33
113.33
116.09
116.09
121.62
127.15
135.44
138.21
124.38
96.74
71.54
78.05
84.55
113.82
130.08
146.33
162.59
162.59
165.85
152.84
149.59
143.08
139.83
136.58
133.33
133.33
136.58
136.58
143.08
149.59
159.34
162.59
146.33
113.82
71.54
78.05
84.55
113.82
130.08
146.33
162.59
162.59
165.85
152.84
149.59
143.08
139.83
136.58
133.33
133.33
136.58
136.58
143.08
149.59
159.34
162.59
146.33
113.82
60.81
66.34
71.87
96.74
110.56
124.38
138.21
138.21
140.97
129.91
127.15
121.62
118.86
116.09
113.33
113.33
116.09
116.09
121.62
127.15
135.44
138.21
124.38
96.74
60.81
66.34
71.87
96.74
110.56
124.38
138.21
138.21
140.97
129.91
127.15
121.62
118.86
116.09
113.33
113.33
116.09
116.09
121.62
127.15
135.44
138.21
124.38
96.74
60.81
66.34
71.87
96.74
110.56
124.38
138.21
138.21
140.97
129.91
127.15
121.62
118.86
116.09
113.33
113.33
116.09
116.09
121.62
127.15
135.44
138.21
124.38
96.74
60.81
66.34
71.87
96.74
110.56
124.38
138.21
138.21
140.97
129.91
127.15
121.62
118.86
116.09
113.33
113.33
116.09
116.09
121.62
127.15
135.44
138.21
124.38
96.74
60.81
66.34
71.87
96.74
110.56
124.38
138.21
138.21
140.97
129.91
127.15
121.62
118.86
116.09
113.33
113.33
116.09
116.09
121.62
127.15
135.44
138.21
124.38
96.74
71.54
78.05
84.55
113.82
130.08
146.33
162.59
162.59
165.85
152.84
149.59
143.08
139.83
136.58
133.33
133.33
136.58
136.58
143.08
149.59
159.34
162.59
146.33
113.82
65.46
71.41
77.37
104.15
119.02
133.90
148.78
148.78
151.75
139.85
136.88
130.93
127.95
124.97
122.00
122.00
124.97
124.97
130.93
136.88
145.80
148.78
133.90
104.15
55.64
60.70
65.76
88.52
101.17
113.82
126.46
126.46
128.99
118.87
116.35
111.29
108.76
106.23
103.70
103.70
106.23
106.23
111.29
116.35
123.93
126.46
113.82
88.52
55.64
60.70
65.76
88.52
101.17
113.82
126.46
126.46
128.99
118.87
116.35
111.29
108.76
106.23
103.70
103.70
106.23
106.23
111.29
116.35
123.93
126.46
113.82
88.52
55.64
60.70
65.76
88.52
101.17
113.82
126.46
126.46
128.99
118.87
116.35
111.29
108.76
106.23
103.70
103.70
106.23
106.23
111.29
116.35
123.93
126.46
113.82
88.52
55.64
60.70
65.76
88.52
101.17
113.82
126.46
126.46
128.99
118.87
116.35
111.29
108.76
106.23
103.70
103.70
106.23
106.23
111.29
116.35
123.93
126.46
113.82
88.52
55.64
60.70
65.76
88.52
101.17
113.82
126.46
126.46
128.99
118.87
116.35
111.29
108.76
106.23
103.70
103.70
106.23
106.23
111.29
116.35
123.93
126.46
113.82
88.52
65.46
71.41
77.37
104.15
119.02
133.90
148.78
148.78
151.75
139.85
136.88
130.93
127.95
124.97
122.00
122.00
124.97
124.97
130.93
136.88
145.80
148.78
133.90
104.15
65.46
71.41
77.37
104.15
119.02
133.90
148.78
148.78
151.75
139.85
136.88
130.93
127.95
124.97
122.00
122.00
124.97
124.97
130.93
136.88
145.80
148.78
133.90
104.15
55.64
60.70
65.76
88.52
101.17
113.82
126.46
126.46
128.99
118.87
116.35
111.29
108.76
106.23
103.70
103.70
106.23
106.23
111.29
116.35
123.93
126.46
113.82
88.52
55.64
60.70
65.76
88.52
101.17
113.82
126.46
126.46
128.99
118.87
116.35
111.29
108.76
106.23
103.70
103.70
106.23
106.23
111.29
116.35
123.93
126.46
113.82
88.52
55.64
60.70
65.76
88.52
101.17
113.82
126.46
126.46
128.99
118.87
116.35
111.29
108.76
106.23
103.70
103.70
106.23
106.23
111.29
116.35
123.93
126.46
113.82
88.52
55.64
60.70
65.76
88.52
101.17
113.82
126.46
126.46
128.99
118.87
116.35
111.29
108.76
106.23
103.70
103.70
106.23
106.23
111.29
116.35
123.93
126.46
113.82
88.52
55.64
60.70
65.76
88.52
101.17
113.82
126.46
126.46
128.99
118.87
116.35
111.29
108.76
106.23
103.70
103.70
106.23
106.23
111.29
116.35
123.93
126.46
113.82
88.52
65.46
71.41
77.37
104.15
119.02
133.90
148.78
148.78
151.75
139.85
136.88
130.93
127.95
124.97
122.00
122.00
124.97
124.97
130.93
136.88
145.80
148.78
133.90
104.15
65.46
71.41
77.37
104.15
119.02
133.90
148.78
148.78
151.75
139.85
136.88
130.93
127.95
124.97
122.00
122.00
124.97
124.97
130.93
136.88
145.80
148.78
133.90
104.15
55.64
60.70
65.76
88.52
101.17
113.82
126.46
126.46
128.99
118.87
116.35
111.29
108.76
106.23
103.70
103.70
106.23
106.23
111.29
116.35
123.93
126.46
113.82
88.52
55.64
60.70
65.76
88.52
101.17
113.82
126.46
126.46
128.99
118.87
116.35
111.29
108.76
106.23
103.70
103.70
106.23
106.23
111.29
116.35
123.93
126.46
113.82
88.52
55.64
60.70
65.76
88.52
101.17
113.82
126.46
126.46
128.99
118.87
116.35
111.29
108.76
106.23
103.70
103.70
106.23
106.23
111.29
116.35
123.93
126.46
113.82
88.52
55.64
60.70
65.76
88.52
101.17
113.82
126.46
126.46
128.99
118.87
116.35
111.29
108.76
106.23
103.70
103.70
106.23
106.23
111.29
116.35
123.93
126.46
113.82
88.52
55.64
60.70
65.76
88.52
101.17
113.82
126.46
126.46
128.99
118.87
116.35
111.29
108.76
106.23
103.70
103.70
106.23
106.23
111.29
116.35
123.93
126.46
113.82
88.52
65.46
71.41
77.37
104.15
119.02
133.90
148.78
148.78
151.75
139.85
136.88
130.93
127.95
124.97
122.00
122.00
124.97
124.97
130.93
136.88
145.80
148.78
133.90
104.15
65.46
71.41
77.37
104.15
119.02
133.90
148.78
148.78
151.75
139.85
136.88
130.93
127.95
124.97
122.00
122.00
124.97
124.97
130.93
136.88
145.80
148.78
133.90
104.15
55.64
60.70
65.76
88.52
101.17
113.82
126.46
126.46
128.99
118.87
116.35
111.29
108.76
106.23
103.70
103.70
106.23
106.23
111.29
116.35
123.93
126.46
113.82
88.52
55.64
60.70
65.76
88.52
101.17
113.82
126.46
126.46
128.99
118.87
116.35
111.29
108.76
106.23
103.70
103.70
106.23
106.23
111.29
116.35
123.93
126.46
113.82
88.52
55.64
60.70
65.76
88.52
101.17
113.82
126.46
126.46
128.99
118.87
116.35
111.29
108.76
106.23
103.70
103.70
106.23
106.23
111.29
116.35
123.93
126.46
113.82
88.52
55.64
60.70
65.76
88.52
101.17
113.82
126.46
126.46
128.99
118.87
116.35
111.29
108.76
106.23
103.70
103.70
106.23
106.23
111.29
116.35
123.93
126.46
113.82
88.52
55.64
60.70
65.76
88.52
101.17
113.82
126.46
126.46
128.99
118.87
116.35
111.29
108.76
106.23
103.70
103.70
106.23
106.23
111.29
116.35
123.93
126.46
113.82
88.52
65.46
71.41
77.37
104.15
119.02
133.90
148.78
148.78
151.75
139.85
136.88
130.93
127.95
124.97
122.00
122.00
124.97
124.97
130.93
136.88
145.80
148.78
133.90
104.15
58.45
63.76
69.08
92.99
106.27
119.55
132.84
132.84
135.50
124.87
122.21
116.90
114.24
111.58
108.93
108.93
111.58
111.58
116.90
122.21
130.18
132.84
119.55
92.99
49.68
54.20
58.71
79.04
90.33
101.62
112.91
112.91
115.17
106.14
103.88
99.36
97.10
94.85
92.59
92.59
94.85
94.85
99.36
103.88
110.65
112.91
101.62
79.04
49.68
54.20
58.71
79.04
90.33
101.62
112.91
112.91
115.17
106.14
103.88
99.36
97.10
94.85
92.59
92.59
94.85
94.85
99.36
103.88
110.65
112.91
101.62
79.04
49.68
54.20
58.71
79.04
90.33
101.62
112.91
112.91
115.17
106.14
103.88
99.36
97.10
94.85
92.59
92.59
94.85
94.85
99.36
103.88
110.65
112.91
101.62
79.04
49.68
54.20
58.71
79.04
90.33
101.62
112.91
112.91
115.17
106.14
103.88
99.36
97.10
94.85
92.59
92.59
94.85
94.85
99.36
103.88
110.65
112.91
101.62
79.04
49.68
54.20
58.71
79.04
90.33
101.62
112.91
112.91
115.17
106.14
103.88
99.36
97.10
94.85
92.59
92.59
94.85
94.85
99.36
103.88
110.65
112.91
101.62
79.04
58.45
63.76
69.08
92.99
106.27
119.55
132.84
132.84
135.50
124.87
122.21
116.90
114.24
111.58
108.93
108.93
111.58
111.58
116.90
122.21
130.18
132.84
119.55
92.99
58.45
63.76
69.08
92.99
106.27
119.55
132.84
132.84
135.50
124.87
122.21
116.90
114.24
111.58
108.93
108.93
111.58
111.58
116.90
122.21
130.18
132.84
119.55
92.99
49.68
54.20
58.71
79.04
90.33
101.62
112.91
112.91
115.17
106.14
103.88
99.36
97.10
94.85
92.59
92.59
94.85
94.85
99.36
103.88
110.65
112.91
101.62
79.04
49.68
54.20
58.71
79.04
90.33
101.62
112.91
112.91
115.17
106.14
103.88
99.36
97.10
94.85
92.59
92.59
94.85
94.85
99.36
103.88
110.65
112.91
101.62
79.04
49.68
54.20
58.71
79.04
90.33
101.62
112.91
112.91
115.17
106.14
103.88
99.36
97.10
94.85
92.59
92.59
94.85
94.85
99.36
103.88
110.65
112.91
101.62
79.04
49.68
54.20
58.71
79.04
90.33
101.62
112.91
112.91
115.17
106.14
103.88
99.36
97.10
94.85
92.59
92.59
94.85
94.85
99.36
103.88
110.65
112.91
101.62
79.04
49.68
54.20
58.71
79.04
90.33
101.62
112.91
112.91
115.17
106.14
103.88
99.36
97.10
94.85
92.59
92.59
94.85
94.85
99.36
103.88
110.65
112.91
101.62
79.04
58.45
63.76
69.08
92.99
106.27
119.55
132.84
132.84
135.50
124.87
122.21
116.90
114.24
111.58
108.93
108.93
111.58
111.58
116.90
122.21
130.18
132.84
119.55
92.99
58.45
63.76
69.08
92.99
106.27
119.55
132.84
132.84
135.50
124.87
122.21
116.90
114.24
111.58
108.93
108.93
111.58
111.58
116.90
122.21
130.18
132.84
119.55
92.99
49.68
54.20
58.71
79.04
90.33
101.62
112.91
112.91
115.17
106.14
103.88
99.36
97.10
94.85
92.59
92.59
94.85
94.85
99.36
103.88
110.65
112.91
101.62
79.04
49.68
54.20
58.71
79.04
90.33
101.62
112.91
112.91
115.17
106.14
103.88
99.36
97.10
94.85
92.59
92.59
94.85
94.85
99.36
103.88
110.65
112.91
101.62
79.04
49.68
54.20
58.71
79.04
90.33
101.62
112.91
112.91
115.17
106.14
103.88
99.36
97.10
94.85
92.59
92.59
94.85
94.85
99.36
103.88
110.65
112.91
101.62
79.04
49.68
54.20
58.71
79.04
90.33
101.62
112.91
112.91
115.17
106.14
103.88
99.36
97.10
94.85
92.59
92.59
94.85
94.85
99.36
103.88
110.65
112.91
101.62
79.04
49.68
54.20
58.71
79.04
90.33
101.62
112.91
112.91
115.17
106.14
103.88
99.36
97.10
94.85
92.59
92.59
94.85
94.85
99.36
103.88
110.65
112.91
101.62
79.04
58.45
63.76
69.08
92.99
106.27
119.55
132.84
132.84
135.50
124.87
122.21
116.90
114.24
111.58
108.93
108.93
111.58
111.58
116.90
122.21
130.18
132.84
119.55
92.99
58.45
63.76
69.08
92.99
106.27
119.55
132.84
132.84
135.50
124.87
122.21
116.90
114.24
111.58
108.93
108.93
111.58
111.58
116.90
122.21
130.18
132.84
119.55
92.99
49.68
54.20
58.71
79.04
90.33
101.62
112.91
112.91
115.17
106.14
103.88
99.36
97.10
94.85
92.59
92.59
94.85
94.85
99.36
103.88
110.65
112.91
101.62
79.04
49.68
54.20
58.71
79.04
90.33
101.62
112.91
112.91
115.17
106.14
103.88
99.36
97.10
94.85
92.59
92.59
94.85
94.85
99.36
103.88
110.65
112.91
101.62
79.04
49.68
54.20
58.71
79.04
90.33
101.62
112.91
112.91
115.17
106.14
103.88
99.36
97.10
94.85
92.59
92.59
94.85
94.85
99.36
103.88
110.65
112.91
101.62
79.04
49.68
54.20
58.71
79.04
90.33
101.62
112.91
112.91
115.17
106.14
103.88
99.36
97.10
94.85
92.59
92.59
94.85
94.85
99.36
103.88
110.65
112.91
101.62
79.04
49.68
54.20
58.71
79.04
90.33
101.62
112.91
112.91
115.17
106.14
103.88
99.36
97.10
94.85
92.59
92.59
94.85
94.85
99.36
103.88
110.65
112.91
101.62
79.04
58.45
63.76
69.08
92.99
106.27
119.55
132.84
132.84
135.50
124.87
122.21
116.90
114.24
111.58
108.93
108.93
111.58
111.58
116.90
122.21
130.18
132.84
119.55
92.99
58.45
63.76
69.08
92.99
106.27
119.55
132.84
132.84
135.50
124.87
122.21
116.90
114.24
111.58
108.93
108.93
111.58
111.58
116.90
122.21
130.18
132.84
119.55
92.99
49.68
54.20
58.71
79.04
90.33
101.62
112.91
112.91
115.17
106.14
103.88
99.36
97.10
94.85
92.59
92.59
94.85
94.85
99.36
103.88
110.65
112.91
101.62
79.04
49.68
54.20
58.71
79.04
90.33
101.62
112.91
112.91
115.17
106.14
103.88
99.36
97.10
94.85
92.59
92.59
94.85
94.85
99.36
103.88
110.65
112.91
101.62
79.04
33.39
36.42
39.46
53.11
60.70
68.29
75.88
75.88
77.39
71.32
69.81
66.77
65.25
63.74
62.22
62.22
63.74
63.74
66.77
69.81
74.36
75.88
68.29
53.11
33.39
36.42
39.46
53.11
60.70
68.29
75.88
75.88
77.39
71.32
69.81
66.77
65.25
63.74
62.22
62.22
63.74
63.74
66.77
69.81
74.36
75.88
68.29
53.11
33.39
36.42
39.46
53.11
60.70
68.29
75.88
75.88
77.39
71.32
69.81
66.77
65.25
63.74
62.22
62.22
63.74
63.74
66.77
69.81
74.36
75.88
68.29
53.11
39.28
42.85
46.42
62.49
71.41
80.34
89.27
89.27
91.05
83.91
82.13
78.56
76.77
74.98
73.20
73.20
74.98
74.98
78.56
82.13
87.48
89.27
80.34
62.49
39.28
42.85
46.42
62.49
71.41
80.34
89.27
89.27
91.05
83.91
82.13
78.56
76.77
74.98
73.20
73.20
74.98
74.98
78.56
82.13
87.48
89.27
80.34
62.49
33.39
36.42
39.46
53.11
60.70
68.29
75.88
75.88
77.39
71.32
69.81
66.77
65.25
63.74
62.22
62.22
63.74
63.74
66.77
69.81
74.36
75.88
68.29
53.11
33.39
36.42
39.46
53.11
60.70
68.29
75.88
75.88
77.39
71.32
69.81
66.77
65.25
63.74
62.22
62.22
63.74
63.74
66.77
69.81
74.36
75.88
68.29
53.11
33.39
36.42
39.46
53.11
60.70
68.29
75.88
75.88
77.39
71.32
69.81
66.77
65.25
63.74
62.22
62.22
63.74
63.74
66.77
69.81
74.36
75.88
68.29
53.11
33.39
36.42
39.46
53.11
60.70
68.29
75.88
75.88
77.39
71.32
69.81
66.77
65.25
63.74
62.22
62.22
63.74
63.74
66.77
69.81
74.36
75.88
68.29
53.11
33.39
36.42
39.46
53.11
60.70
68.29
75.88
75.88
77.39
71.32
69.81
66.77
65.25
63.74
62.22
62.22
63.74
63.74
66.77
69.81
74.36
75.88
68.29
53.11
39.28
42.85
46.42
62.49
71.41
80.34
89.27
89.27
91.05
83.91
82.13
78.56
76.77
74.98
73.20
73.20
74.98
74.98
78.56
82.13
87.48
89.27
80.34
62.49
39.28
42.85
46.42
62.49
71.41
80.34
89.27
89.27
91.05
83.91
82.13
78.56
76.77
74.98
73.20
73.20
74.98
74.98
78.56
82.13
87.48
89.27
80.34
62.49
33.39
36.42
39.46
53.11
60.70
68.29
75.88
75.88
77.39
71.32
69.81
66.77
65.25
63.74
62.22
62.22
63.74
63.74
66.77
69.81
74.36
75.88
68.29
53.11
33.39
36.42
39.46
53.11
60.70
68.29
75.88
75.88
77.39
71.32
69.81
66.77
65.25
63.74
62.22
62.22
63.74
63.74
66.77
69.81
74.36
75.88
68.29
53.11
33.39
36.42
39.46
53.11
60.70
68.29
75.88
75.88
77.39
71.32
69.81
66.77
65.25
63.74
62.22
62.22
63.74
63.74
66.77
69.81
74.36
75.88
68.29
53.11
33.39
36.42
39.46
53.11
60.70
68.29
75.88
75.88
77.39
71.32
69.81
66.77
65.25
63.74
62.22
62.22
63.74
63.74
66.77
69.81
74.36
75.88
68.29
53.11
33.39
36.42
39.46
53.11
60.70
68.29
75.88
75.88
77.39
71.32
69.81
66.77
65.25
63.74
62.22
62.22
63.74
63.74
66.77
69.81
74.36
75.88
68.29
53.11
39.28
42.85
46.42
62.49
71.41
80.34
89.27
89.27
91.05
83.91
82.13
78.56
76.77
74.98
73.20
73.20
74.98
74.98
78.56
82.13
87.48
89.27
80.34
62.49
39.28
42.85
46.42
62.49
71.41
80.34
89.27
89.27
91.05
83.91
82.13
78.56
76.77
74.98
73.20
73.20
74.98
74.98
78.56
82.13
87.48
89.27
80.34
62.49
33.39
36.42
39.46
53.11
60.70
68.29
75.88
75.88
77.39
71.32
69.81
66.77
65.25
63.74
62.22
62.22
63.74
63.74
66.77
69.81
74.36
75.88
68.29
53.11
33.39
36.42
39.46
53.11
60.70
68.29
75.88
75.88
77.39
71.32
69.81
66.77
65.25
63.74
62.22
62.22
63.74
63.74
66.77
69.81
74.36
75.88
68.29
53.11
33.39
36.42
39.46
53.11
60.70
68.29
75.88
75.88
77.39
71.32
69.81
66.77
65.25
63.74
62.22
62.22
63.74
63.74
66.77
69.81
74.36
75.88
68.29
53.11
33.39
36.42
39.46
53.11
60.70
68.29
75.88
75.88
77.39
71.32
69.81
66.77
65.25
63.74
62.22
62.22
63.74
63.74
66.77
69.81
74.36
75.88
68.29
53.11
33.39
36.42
39.46
53.11
60.70
68.29
75.88
75.88
77.39
71.32
69.81
66.77
65.25
63.74
62.22
62.22
63.74
63.74
66.77
69.81
74.36
75.88
68.29
53.11
39.28
42.85
46.42
62.49
71.41
80.34
89.27
89.27
91.05
83.91
82.13
78.56
76.77
74.98
73.20
73.20
74.98
74.98
78.56
82.13
87.48
89.27
80.34
62.49
39.28
42.85
46.42
62.49
71.41
80.34
89.27
89.27
91.05
83.91
82.13
78.56
76.77
74.98
73.20
73.20
74.98
74.98
78.56
82.13
87.48
89.27
80.34
62.49
33.39
36.42
39.46
53.11
60.70
68.29
75.88
75.88
77.39
71.32
69.81
66.77
65.25
63.74
62.22
62.22
63.74
63.74
66.77
69.81
74.36
75.88
68.29
53.11
33.39
36.42
39.46
53.11
60.70
68.29
75.88
75.88
77.39
71.32
69.81
66.77
65.25
63.74
62.22
62.22
63.74
63.74
66.77
69.81
74.36
75.88
68.29
53.11
33.39
36.42
39.46
53.11
60.70
68.29
75.88
75.88
77.39
71.32
69.81
66.77
65.25
63.74
62.22
62.22
63.74
63.74
66.77
69.81
74.36
75.88
68.29
53.11
33.39
36.42
39.46
53.11
60.70
68.29
75.88
75.88
77.39
71.32
69.81
66.77
65.25
63.74
62.22
62.22
63.74
63.74
66.77
69.81
74.36
75.88
68.29
53.11
19.87
21.68
23.49
31.62
36.13
40.65
45.17
45.17
46.07
42.46
41.55
39.75
38.84
37.94
37.04
37.04
37.94
37.94
39.75
41.55
44.26
45.17
40.65
31.62
23.38
25.50
27.63
37.19
42.51
47.82
53.14
53.14
54.20
49.95
48.88
46.76
45.70
44.63
43.57
43.57
44.63
44.63
46.76
48.88
52.07
53.14
47.82
37.19
23.38
25.50
27.63
37.19
42.51
47.82
53.14
53.14
54.20
49.95
48.88
46.76
45.70
44.63
43.57
43.57
44.63
44.63
46.76
48.88
52.07
53.14
47.82
37.19
19.87
21.68
23.49
31.62
36.13
40.65
45.17
45.17
46.07
42.46
41.55
39.75
38.84
37.94
37.04
37.04
37.94
37.94
39.75
41.55
44.26
45.17
40.65
31.62
19.87
21.68
23.49
31.62
36.13
40.65
45.17
45.17
46.07
42.46
41.55
39.75
38.84
37.94
37.04
37.04
37.94
37.94
39.75
41.55
44.26
45.17
40.65
31.62
19.87
21.68
23.49
31.62
36.13
40.65
45.17
45.17
46.07
42.46
41.55
39.75
38.84
37.94
37.04
37.04
37.94
37.94
39.75
41.55
44.26
45.17
40.65
31.62
19.87
21.68
23.49
31.62
36.13
40.65
45.17
45.17
46.07
42.46
41.55
39.75
38.84
37.94
37.04
37.04
37.94
37.94
39.75
41.55
44.26
45.17
40.65
31.62
19.87
21.68
23.49
31.62
36.13
40.65
45.17
45.17
46.07
42.46
41.55
39.75
38.84
37.94
37.04
37.04
37.94
37.94
39.75
41.55
44.26
45.17
40.65
31.62
23.38
25.50
27.63
37.19
42.51
47.82
53.14
53.14
54.20
49.95
48.88
46.76
45.70
44.63
43.57
43.57
44.63
44.63
46.76
48.88
52.07
53.14
47.82
37.19
23.38
25.50
27.63
37.19
42.51
47.82
53.14
53.14
54.20
49.95
48.88
46.76
45.70
44.63
43.57
43.57
44.63
44.63
46.76
48.88
52.07
53.14
47.82
37.19
19.87
21.68
23.49
31.62
36.13
40.65
45.17
45.17
46.07
42.46
41.55
39.75
38.84
37.94
37.04
37.04
37.94
37.94
39.75
41.55
44.26
45.17
40.65
31.62
19.87
21.68
23.49
31.62
36.13
40.65
45.17
45.17
46.07
42.46
41.55
39.75
38.84
37.94
37.04
37.04
37.94
37.94
39.75
41.55
44.26
45.17
40.65
31.62
19.87
21.68
23.49
31.62
36.13
40.65
45.17
45.17
46.07
42.46
41.55
39.75
38.84
37.94
37.04
37.04
37.94
37.94
39.75
41.55
44.26
45.17
40.65
31.62
19.87
21.68
23.49
31.62
36.13
40.65
45.17
45.17
46.07
42.46
41.55
39.75
38.84
37.94
37.04
37.04
37.94
37.94
39.75
41.55
44.26
45.17
40.65
31.62
19.87
21.68
23.49
31.62
36.13
40.65
45.17
45.17
46.07
42.46
41.55
39.75
38.84
37.94
37.04
37.04
37.94
37.94
39.75
41.55
44.26
45.17
40.65
31.62
23.38
25.50
27.63
37.19
42.51
47.82
53.14
53.14
54.20
49.95
48.88
46.76
45.70
44.63
43.57
43.57
44.63
44.63
46.76
48.88
52.07
53.14
47.82
37.19
23.38
25.50
27.63
37.19
42.51
47.82
53.14
53.14
54.20
49.95
48.88
46.76
45.70
44.63
43.57
43.57
44.63
44.63
46.76
48.88
52.07
53.14
47.82
37.19
19.87
21.68
23.49
31.62
36.13
40.65
45.17
45.17
46.07
42.46
41.55
39.75
38.84
37.94
37.04
37.04
37.94
37.94
39.75
41.55
44.26
45.17
40.65
31.62
19.87
21.68
23.49
31.62
36.13
40.65
45.17
45.17
46.07
42.46
41.55
39.75
38.84
37.94
37.04
37.04
37.94
37.94
39.75
41.55
44.26
45.17
40.65
31.62
19.87
21.68
23.49
31.62
36.13
40.65
45.17
45.17
46.07
42.46
41.55
39.75
38.84
37.94
37.04
37.04
37.94
37.94
39.75
41.55
44.26
45.17
40.65
31.62
19.87
21.68
23.49
31.62
36.13
40.65
45.17
45.17
46.07
42.46
41.55
39.75
38.84
37.94
37.04
37.04
37.94
37.94
39.75
41.55
44.26
45.17
40.65
31.62
19.87
21.68
23.49
31.62
36.13
40.65
45.17
45.17
46.07
42.46
41.55
39.75
38.84
37.94
37.04
37.04
37.94
37.94
39.75
41.55
44.26
45.17
40.65
31.62
23.38
25.50
27.63
37.19
42.51
47.82
53.14
53.14
54.20
49.95
48.88
46.76
45.70
44.63
43.57
43.57
44.63
44.63
46.76
48.88
52.07
53.14
47.82
37.19
23.38
25.50
27.63
37.19
42.51
47.82
53.14
53.14
54.20
49.95
48.88
46.76
45.70
44.63
43.57
43.57
44.63
44.63
46.76
48.88
52.07
53.14
47.82
37.19
19.87
21.68
23.49
31.62
36.13
40.65
45.17
45.17
46.07
42.46
41.55
39.75
38.84
37.94
37.04
37.04
37.94
37.94
39.75
41.55
44.26
45.17
40.65
31.62
19.87
21.68
23.49
31.62
36.13
40.65
45.17
45.17
46.07
42.46
41.55
39.75
38.84
37.94
37.04
37.04
37.94
37.94
39.75
41.55
44.26
45.17
40.65
31.62
19.87
21.68
23.49
31.62
36.13
40.65
45.17
45.17
46.07
42.46
41.55
39.75
38.84
37.94
37.04
37.04
37.94
37.94
39.75
41.55
44.26
45.17
40.65
31.62
19.87
21.68
23.49
31.62
36.13
40.65
45.17
45.17
46.07
42.46
41.55
39.75
38.84
37.94
37.04
37.04
37.94
37.94
39.75
41.55
44.26
45.17
40.65
31.62
19.87
21.68
23.49
31.62
36.13
40.65
45.17
45.17
46.07
42.46
41.55
39.75
38.84
37.94
37.04
37.04
37.94
37.94
39.75
41.55
44.26
45.17
40.65
31.62
23.38
25.50
27.63
37.19
42.51
47.82
53.14
53.14
54.20
49.95
48.88
46.76
45.70
44.63
43.57
43.57
44.63
44.63
46.76
48.88
52.07
53.14
47.82
37.19
23.38
25.50
27.63
37.19
42.51
47.82
53.14
53.14
54.20
49.95
48.88
46.76
45.70
44.63
43.57
43.57
44.63
44.63
46.76
48.88
52.07
53.14
47.82
37.19
11.92
13.01
14.09
18.97
21.68
24.39
27.10
27.10
27.64
25.47
24.93
23.85
23.31
22.76
22.22
22.22
22.76
22.76
23.85
24.93
26.56
27.10
24.39
18.97
11.92
13.01
14.09
18.97
21.68
24.39
27.10
27.10
27.64
25.47
24.93
23.85
23.31
22.76
22.22
22.22
22.76
22.76
23.85
24.93
26.56
27.10
24.39
18.97
11.92
13.01
14.09
18.97
21.68
24.39
27.10
27.10
27.64
25.47
24.93
23.85
23.31
22.76
22.22
22.22
22.76
22.76
23.85
24.93
26.56
27.10
24.39
18.97
11.92
13.01
14.09
18.97
21.68
24.39
27.10
27.10
27.64
25.47
24.93
23.85
23.31
22.76
22.22
22.22
22.76
22.76
23.85
24.93
26.56
27.10
24.39
18.97
11.92
13.01
14.09
18.97
21.68
24.39
27.10
27.10
27.64
25.47
24.93
23.85
23.31
22.76
22.22
22.22
22.76
22.76
23.85
24.93
26.56
27.10
24.39
18.97
14.03
15.30
16.58
22.32
25.50
28.69
31.88
31.88
32.52
29.97
29.33
28.06
27.42
26.78
26.14
26.14
26.78
26.78
28.06
29.33
31.24
31.88
28.69
22.32
14.03
15.30
16.58
22.32
25.50
28.69
31.88
31.88
32.52
29.97
29.33
28.06
27.42
26.78
26.14
26.14
26.78
26.78
28.06
29.33
31.24
31.88
28.69
22.32
11.92
13.01
14.09
18.97
21.68
24.39
27.10
27.10
27.64
25.47
24.93
23.85
23.31
22.76
22.22
22.22
22.76
22.76
23.85
24.93
26.56
27.10
24.39
18.97
11.92
13.01
14.09
18.97
21.68
24.39
27.10
27.10
27.64
25.47
24.93
23.85
23.31
22.76
22.22
22.22
22.76
22.76
23.85
24.93
26.56
27.10
24.39
18.97
11.92
13.01
14.09
18.97
21.68
24.39
27.10
27.10
27.64
25.47
24.93
23.85
23.31
22.76
22.22
22.22
22.76
22.76
23.85
24.93
26.56
27.10
24.39
18.97
11.92
13.01
14.09
18.97
21.68
24.39
27.10
27.10
27.64
25.47
24.93
23.85
23.31
22.76
22.22
22.22
22.76
22.76
23.85
24.93
26.56
27.10
24.39
18.97
11.92
13.01
14.09
18.97
21.68
24.39
27.10
27.10
27.64
25.47
24.93
23.85
23.31
22.76
22.22
22.22
22.76
22.76
23.85
24.93
26.56
27.10
24.39
18.97
14.03
15.30
16.58
22.32
25.50
28.69
31.88
31.88
32.52
29.97
29.33
28.06
27.42
26.78
26.14
26.14
26.78
26.78
28.06
29.33
31.24
31.88
28.69
22.32
14.03
15.30
16.58
22.32
25.50
28.69
31.88
31.88
32.52
29.97
29.33
28.06
27.42
26.78
26.14
26.14
26.78
26.78
28.06
29.33
31.24
31.88
28.69
22.32
11.92
13.01
14.09
18.97
21.68
24.39
27.10
27.10
27.64
25.47
24.93
23.85
23.31
22.76
22.22
22.22
22.76
22.76
23.85
24.93
26.56
27.10
24.39
18.97
11.92
13.01
14.09
18.97
21.68
24.39
27.10
27.10
27.64
25.47
24.93
23.85
23.31
22.76
22.22
22.22
22.76
22.76
23.85
24.93
26.56
27.10
24.39
18.97
11.92
13.01
14.09
18.97
21.68
24.39
27.10
27.10
27.64
25.47
24.93
23.85
23.31
22.76
22.22
22.22
22.76
22.76
23.85
24.93
26.56
27.10
24.39
18.97
11.92
13.01
14.09
18.97
21.68
24.39
27.10
27.10
27.64
25.47
24.93
23.85
23.31
22.76
22.22
22.22
22.76
22.76
23.85
24.93
26.56
27.10
24.39
18.97
11.92
13.01
14.09
18.97
21.68
24.39
27.10
27.10
27.64
25.47
24.93
23.85
23.31
22.76
22.22
22.22
22.76
22.76
23.85
24.93
26.56
27.10
24.39
18.97
14.03
15.30
16.58
22.32
25.50
28.69
31.88
31.88
32.52
29.97
29.33
28.06
27.42
26.78
26.14
26.14
26.78
26.78
28.06
29.33
31.24
31.88
28.69
22.32
14.03
15.30
16.58
22.32
25.50
28.69
31.88
31.88
32.52
29.97
29.33
28.06
27.42
26.78
26.14
26.14
26.78
26.78
28.06
29.33
31.24
31.88
28.69
22.32
11.92
13.01
14.09
18.97
21.68
24.39
27.10
27.10
27.64
25.47
24.93
23.85
23.31
22.76
22.22
22.22
22.76
22.76
23.85
24.93
26.56
27.10
24.39
18.97
11.92
13.01
14.09
18.97
21.68
24.39
27.10
27.10
27.64
25.47
24.93
23.85
23.31
22.76
22.22
22.22
22.76
22.76
23.85
24.93
26.56
27.10
24.39
18.97
11.92
13.01
14.09
18.97
21.68
24.39
27.10
27.10
27.64
25.47
24.93
23.85
23.31
22.76
22.22
22.22
22.76
22.76
23.85
24.93
26.56
27.10
24.39
18.97
11.92
13.01
14.09
18.97
21.68
24.39
27.10
27.10
27.64
25.47
24.93
23.85
23.31
22.76
22.22
22.22
22.76
22.76
23.85
24.93
26.56
27.10
24.39
18.97
11.92
13.01
14.09
18.97
21.68
24.39
27.10
27.10
27.64
25.47
24.93
23.85
23.31
22.76
22.22
22.22
22.76
22.76
23.85
24.93
26.56
27.10
24.39
18.97
14.03
15.30
16.58
22.32
25.50
28.69
31.88
31.88
32.52
29.97
29.33
28.06
27.42
26.78
26.14
26.14
26.78
26.78
28.06
29.33
31.24
31.88
28.69
22.32
14.03
15.30
16.58
22.32
25.50
28.69
31.88
31.88
32.52
29.97
29.33
28.06
27.42
26.78
26.14
26.14
26.78
26.78
28.06
29.33
31.24
31.88
28.69
22.32
11.92
13.01
14.09
18.97
21.68
24.39
27.10
27.10
27.64
25.47
24.93
23.85
23.31
22.76
22.22
22.22
22.76
22.76
23.85
24.93
26.56
27.10
24.39
18.97
11.92
13.01
14.09
18.97
21.68
24.39
27.10
27.10
27.64
25.47
24.93
23.85
23.31
22.76
22.22
22.22
22.76
22.76
23.85
24.93
26.56
27.10
24.39
18.97
7.95
8.67
9.39
12.65
14.45
16.26
18.07
18.07
18.43
16.98
16.62
15.90
15.54
15.18
14.81
14.81
15.18
15.18
15.90
16.62
17.70
18.07
16.26
12.65
7.95
8.67
9.39
12.65
14.45
16.26
18.07
18.07
18.43
16.98
16.62
15.90
15.54
15.18
14.81
14.81
15.18
15.18
15.90
16.62
17.70
18.07
16.26
12.65
7.95
8.67
9.39
12.65
14.45
16.26
18.07
18.07
18.43
16.98
16.62
15.90
15.54
15.18
14.81
14.81
15.18
15.18
15.90
16.62
17.70
18.07
16.26
12.65
9.35
10.20
11.05
14.88
17.00
19.13
21.25
21.25
21.68
19.98
19.55
18.70
18.28
17.85
17.43
17.43
17.85
17.85
18.70
19.55
20.83
21.25
19.13
14.88
9.35
10.20
11.05
14.88
17.00
19.13
21.25
21.25
21.68
19.98
19.55
18.70
18.28
17.85
17.43
17.43
17.85
17.85
18.70
19.55
20.83
21.25
19.13
14.88
7.95
8.67
9.39
12.65
14.45
16.26
18.07
18.07
18.43
16.98
16.62
15.90
15.54
15.18
14.81
14.81
15.18
15.18
15.90
16.62
17.70
18.07
16.26
12.65
7.95
8.67
9.39
12.65
14.45
16.26
18.07
18.07
18.43
16.98
16.62
15.90
15.54
15.18
14.81
14.81
15.18
15.18
15.90
16.62
17.70
18.07
16.26
12.65
7.95
8.67
9.39
12.65
14.45
16.26
18.07
18.07
18.43
16.98
16.62
15.90
15.54
15.18
14.81
14.81
15.18
15.18
15.90
16.62
17.70
18.07
16.26
12.65
7.95
8.67
9.39
12.65
14.45
16.26
18.07
18.07
18.43
16.98
16.62
15.90
15.54
15.18
14.81
14.81
15.18
15.18
15.90
16.62
17.70
18.07
16.26
12.65
7.95
8.67
9.39
12.65
14.45
16.26
18.07
18.07
18.43
16.98
16.62
15.90
15.54
15.18
14.81
14.81
15.18
15.18
15.90
16.62
17.70
18.07
16.26
12.65
9.35
10.20
11.05
14.88
17.00
19.13
21.25
21.25
21.68
19.98
19.55
18.70
18.28
17.85
17.43
17.43
17.85
17.85
18.70
19.55
20.83
21.25
19.13
14.88
9.35
10.20
11.05
14.88
17.00
19.13
21.25
21.25
21.68
19.98
19.55
18.70
18.28
17.85
17.43
17.43
17.85
17.85
18.70
19.55
20.83
21.25
19.13
14.88
7.95
8.67
9.39
12.65
14.45
16.26
18.07
18.07
18.43
16.98
16.62
15.90
15.54
15.18
14.81
14.81
15.18
15.18
15.90
16.62
17.70
18.07
16.26
12.65
7.95
8.67
9.39
12.65
14.45
16.26
18.07
18.07
18.43
16.98
16.62
15.90
15.54
15.18
14.81
14.81
15.18
15.18
15.90
16.62
17.70
18.07
16.26
12.65
7.95
8.67
9.39
12.65
14.45
16.26
18.07
18.07
18.43
16.98
16.62
15.90
15.54
15.18
14.81
14.81
15.18
15.18
15.90
16.62
17.70
18.07
16.26
12.65
7.95
8.67
9.39
12.65
14.45
16.26
18.07
18.07
18.43
16.98
16.62
15.90
15.54
15.18
14.81
14.81
15.18
15.18
15.90
16.62
17.70
18.07
16.26
12.65
7.95
8.67
9.39
12.65
14.45
16.26
18.07
18.07
18.43
16.98
16.62
15.90
15.54
15.18
14.81
14.81
15.18
15.18
15.90
16.62
17.70
18.07
16.26
12.65
9.35
10.20
11.05
14.88
17.00
19.13
21.25
21.25
21.68
19.98
19.55
18.70
18.28
17.85
17.43
17.43
17.85
17.85
18.70
19.55
20.83
21.25
19.13
14.88
9.35
10.20
11.05
14.88
17.00
19.13
21.25
21.25
21.68
19.98
19.55
18.70
18.28
17.85
17.43
17.43
17.85
17.85
18.70
19.55
20.83
21.25
19.13
14.88
7.95
8.67
9.39
12.65
14.45
16.26
18.07
18.07
18.43
16.98
16.62
15.90
15.54
15.18
14.81
14.81
15.18
15.18
15.90
16.62
17.70
18.07
16.26
12.65
7.95
8.67
9.39
12.65
14.45
16.26
18.07
18.07
18.43
16.98
16.62
15.90
15.54
15.18
14.81
14.81
15.18
15.18
15.90
16.62
17.70
18.07
16.26
12.65
7.95
8.67
9.39
12.65
14.45
16.26
18.07
18.07
18.43
16.98
16.62
15.90
15.54
15.18
14.81
14.81
15.18
15.18
15.90
16.62
17.70
18.07
16.26
12.65
7.95
8.67
9.39
12.65
14.45
16.26
18.07
18.07
18.43
16.98
16.62
15.90
15.54
15.18
14.81
14.81
15.18
15.18
15.90
16.62
17.70
18.07
16.26
12.65
7.95
8.67
9.39
12.65
14.45
16.26
18.07
18.07
18.43
16.98
16.62
15.90
15.54
15.18
14.81
14.81
15.18
15.18
15.90
16.62
17.70
18.07
16.26
12.65
9.35
10.20
11.05
14.88
17.00
19.13
21.25
21.25
21.68
19.98
19.55
18.70
18.28
17.85
17.43
17.43
17.85
17.85
18.70
19.55
20.83
21.25
19.13
14.88
9.35
10.20
11.05
14.88
17.00
19.13
21.25
21.25
21.68
19.98
19.55
18.70
18.28
17.85
17.43
17.43
17.85
17.85
18.70
19.55
20.83
21.25
19.13
14.88
7.95
8.67
9.39
12.65
14.45
16.26
18.07
18.07
18.43
16.98
16.62
15.90
15.54
15.18
14.81
14.81
15.18
15.18
15.90
16.62
17.70
18.07
16.26
12.65
7.95
8.67
9.39
12.65
14.45
16.26
18.07
18.07
18.43
16.98
16.62
15.90
15.54
15.18
14.81
14.81
15.18
15.18
15.90
16.62
17.70
18.07
16.26
12.65
7.95
8.67
9.39
12.65
14.45
16.26
18.07
18.07
18.43
16.98
16.62
15.90
15.54
15.18
14.81
14.81
15.18
15.18
15.90
16.62
17.70
18.07
16.26
12.65
7.95
8.67
9.39
12.65
14.45
16.26
18.07
18.07
18.43
16.98
16.62
15.90
15.54
15.18
14.81
14.81
15.18
15.18
15.90
16.62
17.70
18.07
16.26
12.65
7.95
8.67
9.39
12.65
14.45
16.26
18.07
18.07
18.43
16.98
16.62
15.90
15.54
15.18
14.81
14.81
15.18
15.18
15.90
16.62
17.70
18.07
16.26
12.65
9.35
10.20
11.05
14.88
17.00
19.13
21.25
21.25
21.68
19.98
19.55
18.70
18.28
17.85
17.43
17.43
17.85
17.85
18.70
19.55
20.83
21.25
19.13
14.88
9.35
10.20
11.05
14.88
17.00
19.13
21.25
21.25
21.68
19.98
19.55
18.70
18.28
17.85
17.43
17.43
17.85
17.85
18.70
19.55
20.83
21.25
19.13
14.88
7.95
8.67
9.39
12.65
14.45
16.26
18.07
18.07
18.43
16.98
16.62
15.90
15.54
15.18
14.81
14.81
15.18
15.18
15.90
16.62
17.70
18.07
16.26
12.65
7.95
8.67
9.39
12.65
14.45
16.26
18.07
18.07
18.43
16.98
16.62
15.90
15.54
15.18
14.81
14.81
15.18
15.18
15.90
16.62
17.70
18.07
16.26
12.65
7.95
8.67
9.39
12.65
14.45
16.26
18.07
18.07
18.43
16.98
16.62
15.90
15.54
15.18
14.81
14.81
15.18
15.18
15.90
16.62
17.70
18.07
16.26
12.65
7.95
8.67
9.39
12.65
14.45
16.26
18.07
18.07
18.43
16.98
16.62
15.90
15.54
15.18
14.81
14.81
15.18
15.18
15.90
16.62
17.70
18.07
16.26
12.65
7.95
8.67
9.39
12.65
14.45
16.26
18.07
18.07
18.43
16.98
16.62
15.90
15.54
15.18
14.81
14.81
15.18
15.18
15.90
16.62
17.70
18.07
16.26
12.65
9.35
10.20
11.05
14.88
17.00
19.13
21.25
21.25
21.68
19.98
19.55
18.70
18.28
17.85
17.43
17.43
17.85
17.85
18.70
19.55
20.83
21.25
19.13
14.88
9.35
10.20
11.05
14.88
17.00
19.13
21.25
21.25
21.68
19.98
19.55
18.70
18.28
17.85
17.43
17.43
17.85
17.85
18.70
19.55
20.83
21.25
19.13
14.88
7.95
8.67
9.39
12.65
14.45
16.26
18.07
18.07
18.43
16.98
16.62
15.90
15.54
15.18
14.81
14.81
15.18
15.18
15.90
16.62
17.70
18.07
16.26
12.65
7.95
8.67
9.39
12.65
14.45
16.26
18.07
18.07
18.43
16.98
16.62
15.90
15.54
15.18
14.81
14.81
15.18
15.18
15.90
16.62
17.70
18.07
16.26
12.65
7.95
8.67
9.39
12.65
14.45
16.26
18.07
18.07
18.43
16.98
16.62
15.90
15.54
15.18
14.81
14.81
15.18
15.18
15.90
16.62
17.70
18.07
16.26
12.65
7.95
8.67
9.39
12.65
14.45
16.26
18.07
18.07
18.43
16.98
16.62
15.90
15.54
15.18
14.81
14.81
15.18
15.18
15.90
16.62
17.70
18.07
16.26
12.65
7.95
8.67
9.39
12.65
14.45
16.26
18.07
18.07
18.43
16.98
16.62
15.90
15.54
15.18
14.81
14.81
15.18
15.18
15.90
16.62
17.70
18.07
16.26
12.65
9.35
10.20
11.05
14.88
17.00
19.13
21.25
21.25
21.68
19.98
19.55
18.70
18.28
17.85
17.43
17.43
17.85
17.85
18.70
19.55
20.83
21.25
19.13
14.88
9.35
10.20
11.05
14.88
17.00
19.13
21.25
21.25
21.68
19.98
19.55
18.70
18.28
17.85
17.43
17.43
17.85
17.85
18.70
19.55
20.83
21.25
19.13
14.88
7.95
8.67
9.39
12.65
14.45
16.26
18.07
18.07
18.43
16.98
16.62
15.90
15.54
15.18
14.81
14.81
15.18
15.18
15.90
16.62
17.70
18.07
16.26
12.65
7.95
8.67
9.39
12.65
14.45
16.26
18.07
18.07
18.43
16.98
16.62
15.90
15.54
15.18
14.81
14.81
15.18
15.18
15.90
16.62
17.70
18.07
16.26
12.65
7.95
8.67
9.39
12.65
14.45
16.26
18.07
18.07
18.43
16.98
16.62
15.90
15.54
15.18
14.81
14.81
15.18
15.18
15.90
16.62
17.70
18.07
16.26
12.65
7.95
8.67
9.39
12.65
14.45
16.26
18.07
18.07
18.43
16.98
16.62
15.90
15.54
15.18
14.81
14.81
15.18
15.18
15.90
16.62
17.70
18.07
16.26
12.65
7.95
8.67
9.39
12.65
14.45
16.26
18.07
18.07
18.43
16.98
16.62
15.90
15.54
15.18
14.81
14.81
15.18
15.18
15.90
16.62
17.70
18.07
16.26
12.65
9.35
10.20
11.05
14.88
17.00
19.13
21.25
21.25
21.68
19.98
19.55
18.70
18.28
17.85
17.43
17.43
17.85
17.85
18.70
19.55
20.83
21.25
19.13
14.88
9.35
10.20
11.05
14.88
17.00
19.13
21.25
21.25
21.68
19.98
19.55
18.70
18.28
17.85
17.43
17.43
17.85
17.85
18.70
19.55
20.83
21.25
19.13
14.88
7.95
8.67
9.39
12.65
14.45
16.26
18.07
18.07
18.43
16.98
16.62
15.90
15.54
15.18
14.81
14.81
15.18
15.18
15.90
16.62
17.70
18.07
16.26
12.65
7.95
8.67
9.39
12.65
14.45
16.26
18.07
18.07
18.43
16.98
16.62
15.90
15.54
15.18
14.81
14.81
15.18
15.18
15.90
16.62
17.70
18.07
16.26
12.65
7.95
8.67
9.39
12.65
14.45
16.26
18.07
18.07
18.43
16.98
16.62
15.90
15.54
15.18
14.81
14.81
15.18
15.18
15.90
16.62
17.70
18.07
16.26
12.65
7.95
8.67
9.39
12.65
14.45
16.26
18.07
18.07
18.43
16.98
16.62
15.90
15.54
15.18
14.81
14.81
15.18
15.18
15.90
16.62
17.70
18.07
16.26
12.65
7.95
8.67
9.39
12.65
14.45
16.26
18.07
18.07
18.43
16.98
16.62
15.90
15.54
15.18
14.81
14.81
15.18
15.18
15.90
16.62
17.70
18.07
16.26
12.65
9.35
10.20
11.05
14.88
17.00
19.13
21.25
21.25
21.68
19.98
19.55
18.70
18.28
17.85
17.43
17.43
17.85
17.85
18.70
19.55
20.83
21.25
19.13
14.88
9.35
10.20
11.05
14.88
17.00
19.13
21.25
21.25
21.68
19.98
19.55
18.70
18.28
17.85
17.43
17.43
17.85
17.85
18.70
19.55
20.83
21.25
19.13
14.88
7.95
8.67
9.39
12.65
14.45
16.26
18.07
18.07
18.43
16.98
16.62
15.90
15.54
15.18
14.81
14.81
15.18
15.18
15.90
16.62
17.70
18.07
16.26
12.65
11.92
13.01
14.09
18.97
21.68
24.39
27.10
27.10
27.64
25.47
24.93
23.85
23.31
22.76
22.22
22.22
22.76
22.76
23.85
24.93
26.56
27.10
24.39
18.97
11.92
13.01
14.09
18.97
21.68
24.39
27.10
27.10
27.64
25.47
24.93
23.85
23.31
22.76
22.22
22.22
22.76
22.76
23.85
24.93
26.56
27.10
24.39
18.97
11.92
13.01
14.09
18.97
21.68
24.39
27.10
27.10
27.64
25.47
24.93
23.85
23.31
22.76
22.22
22.22
22.76
22.76
23.85
24.93
26.56
27.10
24.39
18.97
11.92
13.01
14.09
18.97
21.68
24.39
27.10
27.10
27.64
25.47
24.93
23.85
23.31
22.76
22.22
22.22
22.76
22.76
23.85
24.93
26.56
27.10
24.39
18.97
14.03
15.30
16.58
22.32
25.50
28.69
31.88
31.88
32.52
29.97
29.33
28.06
27.42
26.78
26.14
26.14
26.78
26.78
28.06
29.33
31.24
31.88
28.69
22.32
14.03
15.30
16.58
22.32
25.50
28.69
31.88
31.88
32.52
29.97
29.33
28.06
27.42
26.78
26.14
26.14
26.78
26.78
28.06
29.33
31.24
31.88
28.69
22.32
11.92
13.01
14.09
18.97
21.68
24.39
27.10
27.10
27.64
25.47
24.93
23.85
23.31
22.76
22.22
22.22
22.76
22.76
23.85
24.93
26.56
27.10
24.39
18.97
11.92
13.01
14.09
18.97
21.68
24.39
27.10
27.10
27.64
25.47
24.93
23.85
23.31
22.76
22.22
22.22
22.76
22.76
23.85
24.93
26.56
27.10
24.39
18.97
11.92
13.01
14.09
18.97
21.68
24.39
27.10
27.10
27.64
25.47
24.93
23.85
23.31
22.76
22.22
22.22
22.76
22.76
23.85
24.93
26.56
27.10
24.39
18.97
11.92
13.01
14.09
18.97
21.68
24.39
27.10
27.10
27.64
25.47
24.93
23.85
23.31
22.76
22.22
22.22
22.76
22.76
23.85
24.93
26.56
27.10
24.39
18.97
11.92
13.01
14.09
18.97
21.68
24.39
27.10
27.10
27.64
25.47
24.93
23.85
23.31
22.76
22.22
22.22
22.76
22.76
23.85
24.93
26.56
27.10
24.39
18.97
14.03
15.30
16.58
22.32
25.50
28.69
31.88
31.88
32.52
29.97
29.33
28.06
27.42
26.78
26.14
26.14
26.78
26.78
28.06
29.33
31.24
31.88
28.69
22.32
14.03
15.30
16.58
22.32
25.50
28.69
31.88
31.88
32.52
29.97
29.33
28.06
27.42
26.78
26.14
26.14
26.78
26.78
28.06
29.33
31.24
31.88
28.69
22.32
11.92
13.01
14.09
18.97
21.68
24.39
27.10
27.10
27.64
25.47
24.93
23.85
23.31
22.76
22.22
22.22
22.76
22.76
23.85
24.93
26.56
27.10
24.39
18.97
11.92
13.01
14.09
18.97
21.68
24.39
27.10
27.10
27.64
25.47
24.93
23.85
23.31
22.76
22.22
22.22
22.76
22.76
23.85
24.93
26.56
27.10
24.39
18.97
11.92
13.01
14.09
18.97
21.68
24.39
27.10
27.10
27.64
25.47
24.93
23.85
23.31
22.76
22.22
22.22
22.76
22.76
23.85
24.93
26.56
27.10
24.39
18.97
11.92
13.01
14.09
18.97
21.68
24.39
27.10
27.10
27.64
25.47
24.93
23.85
23.31
22.76
22.22
22.22
22.76
22.76
23.85
24.93
26.56
27.10
24.39
18.97
11.92
13.01
14.09
18.97
21.68
24.39
27.10
27.10
27.64
25.47
24.93
23.85
23.31
22.76
22.22
22.22
22.76
22.76
23.85
24.93
26.56
27.10
24.39
18.97
14.03
15.30
16.58
22.32
25.50
28.69
31.88
31.88
32.52
29.97
29.33
28.06
27.42
26.78
26.14
26.14
26.78
26.78
28.06
29.33
31.24
31.88
28.69
22.32
14.03
15.30
16.58
22.32
25.50
28.69
31.88
31.88
32.52
29.97
29.33
28.06
27.42
26.78
26.14
26.14
26.78
26.78
28.06
29.33
31.24
31.88
28.69
22.32
11.92
13.01
14.09
18.97
21.68
24.39
27.10
27.10
27.64
25.47
24.93
23.85
23.31
22.76
22.22
22.22
22.76
22.76
23.85
24.93
26.56
27.10
24.39
18.97
11.92
13.01
14.09
18.97
21.68
24.39
27.10
27.10
27.64
25.47
24.93
23.85
23.31
22.76
22.22
22.22
22.76
22.76
23.85
24.93
26.56
27.10
24.39
18.97
11.92
13.01
14.09
18.97
21.68
24.39
27.10
27.10
27.64
25.47
24.93
23.85
23.31
22.76
22.22
22.22
22.76
22.76
23.85
24.93
26.56
27.10
24.39
18.97
11.92
13.01
14.09
18.97
21.68
24.39
27.10
27.10
27.64
25.47
24.93
23.85
23.31
22.76
22.22
22.22
22.76
22.76
23.85
24.93
26.56
27.10
24.39
18.97
11.92
13.01
14.09
18.97
21.68
24.39
27.10
27.10
27.64
25.47
24.93
23.85
23.31
22.76
22.22
22.22
22.76
22.76
23.85
24.93
26.56
27.10
24.39
18.97
14.03
15.30
16.58
22.32
25.50
28.69
31.88
31.88
32.52
29.97
29.33
28.06
27.42
26.78
26.14
26.14
26.78
26.78
28.06
29.33
31.24
31.88
28.69
22.32
14.03
15.30
16.58
22.32
25.50
28.69
31.88
31.88
32.52
29.97
29.33
28.06
27.42
26.78
26.14
26.14
26.78
26.78
28.06
29.33
31.24
31.88
28.69
22.32
11.92
13.01
14.09
18.97
21.68
24.39
27.10
27.10
27.64
25.47
24.93
23.85
23.31
22.76
22.22
22.22
22.76
22.76
23.85
24.93
26.56
27.10
24.39
18.97
11.92
13.01
14.09
18.97
21.68
24.39
27.10
27.10
27.64
25.47
24.93
23.85
23.31
22.76
22.22
22.22
22.76
22.76
23.85
24.93
26.56
27.10
24.39
18.97
11.92
13.01
14.09
18.97
21.68
24.39
27.10
27.10
27.64
25.47
24.93
23.85
23.31
22.76
22.22
22.22
22.76
22.76
23.85
24.93
26.56
27.10
24.39
18.97
29.81
32.52
35.23
47.42
54.20
60.97
67.75
67.75
69.10
63.68
62.33
59.62
58.26
56.91
55.55
55.55
56.91
56.91
59.62
62.33
66.39
67.75
60.97
47.42
29.81
32.52
35.23
47.42
54.20
60.97
67.75
67.75
69.10
63.68
62.33
59.62
58.26
56.91
55.55
55.55
56.91
56.91
59.62
62.33
66.39
67.75
60.97
47.42
35.07
38.26
41.45
55.79
63.76
71.73
79.70
79.70
81.30
74.92
73.33
70.14
68.54
66.95
65.36
65.36
66.95
66.95
70.14
73.33
78.11
79.70
71.73
55.79
35.07
38.26
41.45
55.79
63.76
71.73
79.70
79.70
81.30
74.92
73.33
70.14
68.54
66.95
65.36
65.36
66.95
66.95
70.14
73.33
78.11
79.70
71.73
55.79
29.81
32.52
35.23
47.42
54.20
60.97
67.75
67.75
69.10
63.68
62.33
59.62
58.26
56.91
55.55
55.55
56.91
56.91
59.62
62.33
66.39
67.75
60.97
47.42
29.81
32.52
35.23
47.42
54.20
60.97
67.75
67.75
69.10
63.68
62.33
59.62
58.26
56.91
55.55
55.55
56.91
56.91
59.62
62.33
66.39
67.75
60.97
47.42
29.81
32.52
35.23
47.42
54.20
60.97
67.75
67.75
69.10
63.68
62.33
59.62
58.26
56.91
55.55
55.55
56.91
56.91
59.62
62.33
66.39
67.75
60.97
47.42
29.81
32.52
35.23
47.42
54.20
60.97
67.75
67.75
69.10
63.68
62.33
59.62
58.26
56.91
55.55
55.55
56.91
56.91
59.62
62.33
66.39
67.75
60.97
47.42
29.81
32.52
35.23
47.42
54.20
60.97
67.75
67.75
69.10
63.68
62.33
59.62
58.26
56.91
55.55
55.55
56.91
56.91
59.62
62.33
66.39
67.75
60.97
47.42
35.07
38.26
41.45
55.79
63.76
71.73
79.70
79.70
81.30
74.92
73.33
70.14
68.54
66.95
65.36
65.36
66.95
66.95
70.14
73.33
78.11
79.70
71.73
55.79
35.07
38.26
41.45
55.79
63.76
71.73
79.70
79.70
81.30
74.92
73.33
70.14
68.54
66.95
65.36
65.36
66.95
66.95
70.14
73.33
78.11
79.70
71.73
55.79
29.81
32.52
35.23
47.42
54.20
60.97
67.75
67.75
69.10
63.68
62.33
59.62
58.26
56.91
55.55
55.55
56.91
56.91
59.62
62.33
66.39
67.75
60.97
47.42
29.81
32.52
35.23
47.42
54.20
60.97
67.75
67.75
69.10
63.68
62.33
59.62
58.26
56.91
55.55
55.55
56.91
56.91
59.62
62.33
66.39
67.75
60.97
47.42
29.81
32.52
35.23
47.42
54.20
60.97
67.75
67.75
69.10
63.68
62.33
59.62
58.26
56.91
55.55
55.55
56.91
56.91
59.62
62.33
66.39
67.75
60.97
47.42
29.81
32.52
35.23
47.42
54.20
60.97
67.75
67.75
69.10
63.68
62.33
59.62
58.26
56.91
55.55
55.55
56.91
56.91
59.62
62.33
66.39
67.75
60.97
47.42
29.81
32.52
35.23
47.42
54.20
60.97
67.75
67.75
69.10
63.68
62.33
59.62
58.26
56.91
55.55
55.55
56.91
56.91
59.62
62.33
66.39
67.75
60.97
47.42
35.07
38.26
41.45
55.79
63.76
71.73
79.70
79.70
81.30
74.92
73.33
70.14
68.54
66.95
65.36
65.36
66.95
66.95
70.14
73.33
78.11
79.70
71.73
55.79
35.07
38.26
41.45
55.79
63.76
71.73
79.70
79.70
81.30
74.92
73.33
70.14
68.54
66.95
65.36
65.36
66.95
66.95
70.14
73.33
78.11
79.70
71.73
55.79
29.81
32.52
35.23
47.42
54.20
60.97
67.75
67.75
69.10
63.68
62.33
59.62
58.26
56.91
55.55
55.55
56.91
56.91
59.62
62.33
66.39
67.75
60.97
47.42
29.81
32.52
35.23
47.42
54.20
60.97
67.75
67.75
69.10
63.68
62.33
59.62
58.26
56.91
55.55
55.55
56.91
56.91
59.62
62.33
66.39
67.75
60.97
47.42
29.81
32.52
35.23
47.42
54.20
60.97
67.75
67.75
69.10
63.68
62.33
59.62
58.26
56.91
55.55
55.55
56.91
56.91
59.62
62.33
66.39
67.75
60.97
47.42
29.81
32.52
35.23
47.42
54.20
60.97
67.75
67.75
69.10
63.68
62.33
59.62
58.26
56.91
55.55
55.55
56.91
56.91
59.62
62.33
66.39
67.75
60.97
47.42
29.81
32.52
35.23
47.42
54.20
60.97
67.75
67.75
69.10
63.68
62.33
59.62
58.26
56.91
55.55
55.55
56.91
56.91
59.62
62.33
66.39
67.75
60.97
47.42
35.07
38.26
41.45
55.79
63.76
71.73
79.70
79.70
81.30
74.92
73.33
70.14
68.54
66.95
65.36
65.36
66.95
66.95
70.14
73.33
78.11
79.70
71.73
55.79
35.07
38.26
41.45
55.79
63.76
71.73
79.70
79.70
81.30
74.92
73.33
70.14
68.54
66.95
65.36
65.36
66.95
66.95
70.14
73.33
78.11
79.70
71.73
55.79
29.81
32.52
35.23
47.42
54.20
60.97
67.75
67.75
69.10
63.68
62.33
59.62
58.26
56.91
55.55
55.55
56.91
56.91
59.62
62.33
66.39
67.75
60.97
47.42
29.81
32.52
35.23
47.42
54.20
60.97
67.75
67.75
69.10
63.68
62.33
59.62
58.26
56.91
55.55
55.55
56.91
56.91
59.62
62.33
66.39
67.75
60.97
47.42
29.81
32.52
35.23
47.42
54.20
60.97
67.75
67.75
69.10
63.68
62.33
59.62
58.26
56.91
55.55
55.55
56.91
56.91
59.62
62.33
66.39
67.75
60.97
47.42
29.81
32.52
35.23
47.42
54.20
60.97
67.75
67.75
69.10
63.68
62.33
59.62
58.26
56.91
55.55
55.55
56.91
56.91
59.62
62.33
66.39
67.75
60.97
47.42
29.81
32.52
35.23
47.42
54.20
60.97
67.75
67.75
69.10
63.68
62.33
59.62
58.26
56.91
55.55
55.55
56.91
56.91
59.62
62.33
66.39
67.75
60.97
47.42
35.07
38.26
41.45
55.79
63.76
71.73
79.70
79.70
81.30
74.92
73.33
70.14
68.54
66.95
65.36
65.36
66.95
66.95
70.14
73.33
78.11
79.70
71.73
55.79
57.98
63.25
68.52
92.24
105.42
118.60
131.78
131.78
134.41
123.87
121.23
115.96
113.33
110.69
108.06
108.06
110.69
110.69
115.96
121.23
129.14
131.78
118.60
92.24
49.28
53.76
58.24
78.41
89.61
100.81
112.01
112.01
114.25
105.29
103.05
98.57
96.33
94.09
91.85
91.85
94.09
94.09
98.57
103.05
109.77
112.01
100.81
78.41
49.28
53.76
58.24
78.41
89.61
100.81
112.01
112.01
114.25
105.29
103.05
98.57
96.33
94.09
91.85
91.85
94.09
94.09
98.57
103.05
109.77
112.01
100.81
78.41
49.28
53.76
58.24
78.41
89.61
100.81
112.01
112.01
114.25
105.29
103.05
98.57
96.33
94.09
91.85
91.85
94.09
94.09
98.57
103.05
109.77
112.01
100.81
78.41
49.28
53.76
58.24
78.41
89.61
100.81
112.01
112.01
114.25
105.29
103.05
98.57
96.33
94.09
91.85
91.85
94.09
94.09
98.57
103.05
109.77
112.01
100.81
78.41
49.28
53.76
58.24
78.41
89.61
100.81
112.01
112.01
114.25
105.29
103.05
98.57
96.33
94.09
91.85
91.85
94.09
94.09
98.57
103.05
109.77
112.01
100.81
78.41
57.98
63.25
68.52
92.24
105.42
118.60
131.78
131.78
134.41
123.87
121.23
115.96
113.33
110.69
108.06
108.06
110.69
110.69
115.96
121.23
129.14
131.78
118.60
92.24
57.98
63.25
68.52
92.24
105.42
118.60
131.78
131.78
134.41
123.87
121.23
115.96
113.33
110.69
108.06
108.06
110.69
110.69
115.96
121.23
129.14
131.78
118.60
92.24
49.28
53.76
58.24
78.41
89.61
100.81
112.01
112.01
114.25
105.29
103.05
98.57
96.33
94.09
91.85
91.85
94.09
94.09
98.57
103.05
109.77
112.01
100.81
78.41
49.28
53.76
58.24
78.41
89.61
100.81
112.01
112.01
114.25
105.29
103.05
98.57
96.33
94.09
91.85
91.85
94.09
94.09
98.57
103.05
109.77
112.01
100.81
78.41
49.28
53.76
58.24
78.41
89.61
100.81
112.01
112.01
114.25
105.29
103.05
98.57
96.33
94.09
91.85
91.85
94.09
94.09
98.57
103.05
109.77
112.01
100.81
78.41
49.28
53.76
58.24
78.41
89.61
100.81
112.01
112.01
114.25
105.29
103.05
98.57
96.33
94.09
91.85
91.85
94.09
94.09
98.57
103.05
109.77
112.01
100.81
78.41
49.28
53.76
58.24
78.41
89.61
100.81
112.01
112.01
114.25
105.29
103.05
98.57
96.33
94.09
91.85
91.85
94.09
94.09
98.57
103.05
109.77
112.01
100.81
78.41
57.98
63.25
68.52
92.24
105.42
118.60
131.78
131.78
134.41
123.87
121.23
115.96
113.33
110.69
108.06
108.06
110.69
110.69
115.96
121.23
129.14
131.78
118.60
92.24
57.98
63.25
68.52
92.24
105.42
118.60
131.78
131.78
134.41
123.87
121.23
115.96
113.33
110.69
108.06
108.06
110.69
110.69
115.96
121.23
129.14
131.78
118.60
92.24
49.28
53.76
58.24
78.41
89.61
100.81
112.01
112.01
114.25
105.29
103.05
98.57
96.33
94.09
91.85
91.85
94.09
94.09
98.57
103.05
109.77
112.01
100.81
78.41
49.28
53.76
58.24
78.41
89.61
100.81
112.01
112.01
114.25
105.29
103.05
98.57
96.33
94.09
91.85
91.85
94.09
94.09
98.57
103.05
109.77
112.01
100.81
78.41
49.28
53.76
58.24
78.41
89.61
100.81
112.01
112.01
114.25
105.29
103.05
98.57
96.33
94.09
91.85
91.85
94.09
94.09
98.57
103.05
109.77
112.01
100.81
78.41
49.28
53.76
58.24
78.41
89.61
100.81
112.01
112.01
114.25
105.29
103.05
98.57
96.33
94.09
91.85
91.85
94.09
94.09
98.57
103.05
109.77
112.01
100.81
78.41
49.28
53.76
58.24
78.41
89.61
100.81
112.01
112.01
114.25
105.29
103.05
98.57
96.33
94.09
91.85
91.85
94.09
94.09
98.57
103.05
109.77
112.01
100.81
78.41
57.98
63.25
68.52
92.24
105.42
118.60
131.78
131.78
134.41
123.87
121.23
115.96
113.33
110.69
108.06
108.06
110.69
110.69
115.96
121.23
129.14
131.78
118.60
92.24
57.98
63.25
68.52
92.24
105.42
118.60
131.78
131.78
134.41
123.87
121.23
115.96
113.33
110.69
108.06
108.06
110.69
110.69
115.96
121.23
129.14
131.78
118.60
92.24
49.28
53.76
58.24
78.41
89.61
100.81
112.01
112.01
114.25
105.29
103.05
98.57
96.33
94.09
91.85
91.85
94.09
94.09
98.57
103.05
109.77
112.01
100.81
78.41
49.28
53.76
58.24
78.41
89.61
100.81
112.01
112.01
114.25
105.29
103.05
98.57
96.33
94.09
91.85
91.85
94.09
94.09
98.57
103.05
109.77
112.01
100.81
78.41
49.28
53.76
58.24
78.41
89.61
100.81
112.01
112.01
114.25
105.29
103.05
98.57
96.33
94.09
91.85
91.85
94.09
94.09
98.57
103.05
109.77
112.01
100.81
78.41
49.28
53.76
58.24
78.41
89.61
100.81
112.01
112.01
114.25
105.29
103.05
98.57
96.33
94.09
91.85
91.85
94.09
94.09
98.57
103.05
109.77
112.01
100.81
78.41
49.28
53.76
58.24
78.41
89.61
100.81
112.01
112.01
114.25
105.29
103.05
98.57
96.33
94.09
91.85
91.85
94.09
94.09
98.57
103.05
109.77
112.01
100.81
78.41
57.98
63.25
68.52
92.24
105.42
118.60
131.78
131.78
134.41
123.87
121.23
115.96
113.33
110.69
108.06
108.06
110.69
110.69
115.96
121.23
129.14
131.78
118.60
92.24
57.98
63.25
68.52
92.24
105.42
118.60
131.78
131.78
134.41
123.87
121.23
115.96
113.33
110.69
108.06
108.06
110.69
110.69
115.96
121.23
129.14
131.78
118.60
92.24
49.28
53.76
58.24
78.41
89.61
100.81
112.01
112.01
114.25
105.29
103.05
98.57
96.33
94.09
91.85
91.85
94.09
94.09
98.57
103.05
109.77
112.01
100.81
78.41
59.22
64.60
69.99
94.21
107.67
121.13
134.59
134.59
137.28
126.52
123.82
118.44
115.75
113.06
110.37
110.37
113.06
113.06
118.44
123.82
131.90
134.59
121.13
94.21
59.22
64.60
69.99
94.21
107.67
121.13
134.59
134.59
137.28
126.52
123.82
118.44
115.75
113.06
110.37
110.37
113.06
113.06
118.44
123.82
131.90
134.59
121.13
94.21
59.22
64.60
69.99
94.21
107.67
121.13
134.59
134.59
137.28
126.52
123.82
118.44
115.75
113.06
110.37
110.37
113.06
113.06
118.44
123.82
131.90
134.59
121.13
94.21
59.22
64.60
69.99
94.21
107.67
121.13
134.59
134.59
137.28
126.52
123.82
118.44
115.75
113.06
110.37
110.37
113.06
113.06
118.44
123.82
131.90
134.59
121.13
94.21
69.67
76.00
82.34
110.84
126.67
142.51
158.34
158.34
161.51
148.84
145.68
139.34
136.18
133.01
129.84
129.84
133.01
133.01
139.34
145.68
155.18
158.34
142.51
110.84
69.67
76.00
82.34
110.84
126.67
142.51
158.34
158.34
161.51
148.84
145.68
139.34
136.18
133.01
129.84
129.84
133.01
133.01
139.34
145.68
155.18
158.34
142.51
110.84
59.22
64.60
69.99
94.21
107.67
121.13
134.59
134.59
137.28
126.52
123.82
118.44
115.75
113.06
110.37
110.37
113.06
113.06
118.44
123.82
131.90
134.59
121.13
94.21
59.22
64.60
69.99
94.21
107.67
121.13
134.59
134.59
137.28
126.52
123.82
118.44
115.75
113.06
110.37
110.37
113.06
113.06
118.44
123.82
131.90
134.59
121.13
94.21
59.22
64.60
69.99
94.21
107.67
121.13
134.59
134.59
137.28
126.52
123.82
118.44
115.75
113.06
110.37
110.37
113.06
113.06
118.44
123.82
131.90
134.59
121.13
94.21
59.22
64.60
69.99
94.21
107.67
121.13
134.59
134.59
137.28
126.52
123.82
118.44
115.75
113.06
110.37
110.37
113.06
113.06
118.44
123.82
131.90
134.59
121.13
94.21
59.22
64.60
69.99
94.21
107.67
121.13
134.59
134.59
137.28
126.52
123.82
118.44
115.75
113.06
110.37
110.37
113.06
113.06
118.44
123.82
131.90
134.59
121.13
94.21
69.67
76.00
82.34
110.84
126.67
142.51
158.34
158.34
161.51
148.84
145.68
139.34
136.18
133.01
129.84
129.84
133.01
133.01
139.34
145.68
155.18
158.34
142.51
110.84
69.67
76.00
82.34
110.84
126.67
142.51
158.34
158.34
161.51
148.84
145.68
139.34
136.18
133.01
129.84
129.84
133.01
133.01
139.34
145.68
155.18
158.34
142.51
110.84
59.22
64.60
69.99
94.21
107.67
121.13
134.59
134.59
137.28
126.52
123.82
118.44
115.75
113.06
110.37
110.37
113.06
113.06
118.44
123.82
131.90
134.59
121.13
94.21
59.22
64.60
69.99
94.21
107.67
121.13
134.59
134.59
137.28
126.52
123.82
118.44
115.75
113.06
110.37
110.37
113.06
113.06
118.44
123.82
131.90
134.59
121.13
94.21
59.22
64.60
69.99
94.21
107.67
121.13
134.59
134.59
137.28
126.52
123.82
118.44
115.75
113.06
110.37
110.37
113.06
113.06
118.44
123.82
131.90
134.59
121.13
94.21
59.22
64.60
69.99
94.21
107.67
121.13
134.59
134.59
137.28
126.52
123.82
118.44
115.75
113.06
110.37
110.37
113.06
113.06
118.44
123.82
131.90
134.59
121.13
94.21
59.22
64.60
69.99
94.21
107.67
121.13
134.59
134.59
137.28
126.52
123.82
118.44
115.75
113.06
110.37
110.37
113.06
113.06
118.44
123.82
131.90
134.59
121.13
94.21
69.67
76.00
82.34
110.84
126.67
142.51
158.34
158.34
161.51
148.84
145.68
139.34
136.18
133.01
129.84
129.84
133.01
133.01
139.34
145.68
155.18
158.34
142.51
110.84
69.67
76.00
82.34
110.84
126.67
142.51
158.34
158.34
161.51
148.84
145.68
139.34
136.18
133.01
129.84
129.84
133.01
133.01
139.34
145.68
155.18
158.34
142.51
110.84
59.22
64.60
69.99
94.21
107.67
121.13
134.59
134.59
137.28
126.52
123.82
118.44
115.75
113.06
110.37
110.37
113.06
113.06
118.44
123.82
131.90
134.59
121.13
94.21
59.22
64.60
69.99
94.21
107.67
121.13
134.59
134.59
137.28
126.52
123.82
118.44
115.75
113.06
110.37
110.37
113.06
113.06
118.44
123.82
131.90
134.59
121.13
94.21
59.22
64.60
69.99
94.21
107.67
121.13
134.59
134.59
137.28
126.52
123.82
118.44
115.75
113.06
110.37
110.37
113.06
113.06
118.44
123.82
131.90
134.59
121.13
94.21
59.22
64.60
69.99
94.21
107.67
121.13
134.59
134.59
137.28
126.52
123.82
118.44
115.75
113.06
110.37
110.37
113.06
113.06
118.44
123.82
131.90
134.59
121.13
94.21
59.22
64.60
69.99
94.21
107.67
121.13
134.59
134.59
137.28
126.52
123.82
118.44
115.75
113.06
110.37
110.37
113.06
113.06
118.44
123.82
131.90
134.59
121.13
94.21
69.67
76.00
82.34
110.84
126.67
142.51
158.34
158.34
161.51
148.84
145.68
139.34
136.18
133.01
129.84
129.84
133.01
133.01
139.34
145.68
155.18
158.34
142.51
110.84
69.67
76.00
82.34
110.84
126.67
142.51
158.34
158.34
161.51
148.84
145.68
139.34
136.18
133.01
129.84
129.84
133.01
133.01
139.34
145.68
155.18
158.34
142.51
110.84
59.22
64.60
69.99
94.21
107.67
121.13
134.59
134.59
137.28
126.52
123.82
118.44
115.75
113.06
110.37
110.37
113.06
113.06
118.44
123.82
131.90
134.59
121.13
94.21
59.22
64.60
69.99
94.21
107.67
121.13
134.59
134.59
137.28
126.52
123.82
118.44
115.75
113.06
110.37
110.37
113.06
113.06
118.44
123.82
131.90
134.59
121.13
94.21
59.22
64.60
69.99
94.21
107.67
121.13
134.59
134.59
137.28
126.52
123.82
118.44
115.75
113.06
110.37
110.37
113.06
113.06
118.44
123.82
131.90
134.59
121.13
94.21
59.22
64.60
69.99
94.21
107.67
121.13
134.59
134.59
137.28
126.52
123.82
118.44
115.75
113.06
110.37
110.37
113.06
113.06
118.44
123.82
131.90
134.59
121.13
94.21
